{
    "packageDirectories": [
        {
            "path": "force-app",
            "default": true,
            "package": "salesApps",
            "versionName": "ver 1.0",
            "versionNumber": "1.0.0.NEXT"
        }
    ],
    "namespace": "",
    "sfdcLoginUrl": "https://login.salesforce.com",
    "sourceApiVersion": "46.0",
    "packageAliases": {
        "salesApps": "0Ho2E000000KynISAS",
        "salesApps@1.0.0-1": "04t2E000001fBC0QAM"
    }
}